{
    "center": "14.8101,49.7073,12",
    "name": "Honitby",
    "json": "{\"vector_layers\":[{\"id\":\"honitby_stavy13\",\"description\":\"honitby\",\"fields\":{\"BOBR_STAV\":\"String\",\"BOBR_STAV_pct\":\"String\",\"HONITBA\":\"String\",\"HRDLICKA_STAV\":\"String\",\"HRDLICKA_STAV_pct\":\"String\",\"HRIVNAC_STAV\":\"String\",\"HRIVNAC_STAV_pct\":\"String\",\"JERABEK_STAV\":\"String\",\"JERABEK_STAV_pct\":\"String\",\"JEZEVEC_STAV\":\"String\",\"JEZEVEC_STAV_pct\":\"String\",\"JKS_CERNASA\":\"String\",\"JKS_CERNASA_pct\":\"String\",\"JKS_DANCISA\":\"String\",\"JKS_DANCISA_pct\":\"String\",\"JKS_JELENCESA\":\"String\",\"JKS_JELENCESA_pct\":\"String\",\"JKS_JELENISA\":\"String\",\"JKS_JELENISA_pct\":\"String\",\"JKS_KAMZICISA\":\"String\",\"JKS_KAMZICISA_pct\":\"String\",\"JKS_MUFLONISA\":\"String\",\"JKS_MUFLONISA_pct\":\"String\",\"JKS_SIKAJAPDYBSA\":\"String\",\"JKS_SIKAJAPDYBSA_pct\":\"String\",\"JKS_SRNCISA\":\"String\",\"JKS_SRNCISA_pct\":\"String\",\"JKS_ZAJIC\":\"String\",\"JKS_ZAJIC_pct\":\"String\",\"KOCKA_STAV\":\"String\",\"KOCKA_STAV_pct\":\"String\",\"KORMORAN_STAV\":\"String\",\"KORMORAN_STAV_pct\":\"String\",\"KUNALESNISKALNI_STAV\":\"String\",\"KUNALESNISKALNI_STAV_pct\":\"String\",\"LISKA_STAV\":\"String\",\"LISKA_STAV_pct\":\"String\",\"LOS_STAV\":\"String\",\"LOS_STAV_pct\":\"String\",\"NAZEV\":\"String\",\"ONDATRA_STAV\":\"String\",\"ONDATRA_STAV_pct\":\"String\",\"SPACEK_STAV\":\"String\",\"SPACEK_STAV_pct\":\"String\",\"STRAKA_STAV\":\"String\",\"STRAKA_STAV_pct\":\"String\",\"Shape_Area\":\"Number\",\"Shape_Length\":\"Number\",\"TCHORTMAVYSTEPNI_STAV\":\"String\",\"TCHORTMAVYSTEPNI_STAV_pct\":\"String\",\"TETREV_STAV\":\"String\",\"TETREV_STAV_pct\":\"String\",\"VOLAVKA_STAV\":\"String\",\"VOLAVKA_STAV_pct\":\"String\",\"VRANA_STAV\":\"String\",\"VRANA_STAV_pct\":\"String\",\"VYDRA_STAV\":\"String\",\"VYDRA_STAV_pct\":\"String\",\"VYMERA\":\"Number\"}}]}",
    "minzoom": "7",
    "format": "pbf",
    "maxzoom": "12"
}